# setting LC_ALL to "C"
# --> Including file '/tmp/hschindl/tmp0DMxB2.py'
Added tool: TbMillepede (0)
# <-- End of file '/tmp/hschindl/tmp0DMxB2.py'
# applying configuration of Kepler
# /***** User Kepler/Kepler **************************************************************************
# |-UseSimpleTracking = True
# |-Tracking          = True
# |-Monitoring        = True
# |-EtaConfigFiles    = []  (default: [])
# |-TimingConfigFile  = ''
# |-WriteTuples       = False
# |-TupleFile         = ''
# |-AlignmentFile     = 'eos/lhcb/testbeam/velo/timepix3/July2015/RootFiles/Run7615/Conditions/Alignment7615mille.dat'
# |                   (default: '')
# |-EvtMax            = -1
# |-PixelConfigFile   = []  (default: [])
# |-HistogramFile     = ''
# |-Alignment         = True  (default: False)
# |-UT                = False
# |-UserAlgorithms    = []  (default: [])
# |-InputFiles        = ['eos/lhcb/testbeam/velo/timepix3/July2015/RawData/Run7615/']  (default: [])
# |-Sim               = False
# \----- (End of User Kepler/Kepler) -----------------------------------------------------------------
ApplicationMgr    SUCCESS
====================================================================================================================================
                                                   Welcome to Kepler version v3r1
                                          running on lxplus007.cern.ch on Tue Feb 14 19:51:24 2017
====================================================================================================================================
ApplicationMgr       INFO Application Manager Configured successfully
TbDataSvc            INFO Reading File: root://eoslhcb.cern.ch//eos/lhcb/testbeam/velo/timepix3/July2015/RawData/Run7615/W0002_B05-150714-180051-7615-1.dat
TbDataSvc            INFO Reading File: root://eoslhcb.cern.ch//eos/lhcb/testbeam/velo/timepix3/July2015/RawData/Run7615/W0002_C05-150714-180051-7615-1.dat
TbDataSvc            INFO Reading File: root://eoslhcb.cern.ch//eos/lhcb/testbeam/velo/timepix3/July2015/RawData/Run7615/W0002_D05-150714-180051-7615-1.dat
TbDataSvc            INFO Reading File: root://eoslhcb.cern.ch//eos/lhcb/testbeam/velo/timepix3/July2015/RawData/Run7615/W0002_E05-150714-180051-7615-1.dat
TbDataSvc            INFO Reading File: root://eoslhcb.cern.ch//eos/lhcb/testbeam/velo/timepix3/July2015/RawData/Run7615/W0002_F05-150714-180051-7615-1.dat
TbDataSvc            INFO Reading File: root://eoslhcb.cern.ch//eos/lhcb/testbeam/velo/timepix3/July2015/RawData/Run7615/W0002_G05-150714-180051-7615-1.dat
TbDataSvc            INFO Reading File: root://eoslhcb.cern.ch//eos/lhcb/testbeam/velo/timepix3/July2015/RawData/Run7615/W0002_H07-150714-180051-7615-1.dat
TbDataSvc            INFO Reading File: root://eoslhcb.cern.ch//eos/lhcb/testbeam/velo/timepix3/July2015/RawData/Run7615/W0002_J06-150714-180051-7615-1.dat
TbDataSvc            INFO Reading File: root://eoslhcb.cern.ch//eos/lhcb/testbeam/velo/timepix3/July2015/RawData/Run7615/W0009_G08-150714-180051-7615-1.dat
TbGeometrySvc        INFO Inter-chip distance set to 0.11
TbGeometrySvc        INFO Importing alignment conditions from root://eoslhcb.cern.ch//eos/lhcb/testbeam/velo/timepix3/July2015/RootFiles/Run7615/Conditions/Alignment7615mille.dat
TbGeometrySvc        INFO  0 W0002_J06           13.907     13.494      3.778      2.984      3.272      0.008
TbGeometrySvc        INFO  1 W0002_B05           14.293     13.781     52.475      2.985      3.267      0.002
TbGeometrySvc        INFO  2 W0002_C05           14.214     13.838     93.675      2.988      3.287     -0.001
TbGeometrySvc        INFO  3 W0002_D05           14.067     14.101    128.900      2.991      3.295      0.006
TbGeometrySvc        INFO  4 W0009_G08           -0.129     15.709    252.014      3.125     -0.449     -0.053
TbGeometrySvc        INFO  5 W0002_G05           -1.083     13.560    410.853      3.266      0.166     -0.049
TbGeometrySvc        INFO  6 W0002_F05           -0.568     13.841    443.837      3.250      0.180     -0.044
TbGeometrySvc        INFO  7 W0002_H07            0.301     14.130    494.828      3.247      0.175     -0.045
TbGeometrySvc        INFO  8 W0002_E05            0.289     14.324    538.655      3.233      0.180     -0.048
RndmGenSvc.Engine    INFO Generator engine type:CLHEP::RanluxEngine
RndmGenSvc.Engine    INFO Current Seed:1234567 Luxury:3
RndmGenSvc           INFO Using Random engine:HepRndm::Engine<CLHEP::RanluxEngine>
TimingAuditor.T...   INFO This machine has a speed about   2.82 times the speed of a 2.8 GHz Xeon.
NTupleSvc            INFO Added stream file:Kepler-tuple.root as FILE1
KeplerSequencer      INFO Member list: GaudiSequencer/Telescope, GaudiSequencer/Monitoring, GaudiSequencer/Output
Telescope            INFO Member list: TbEventBuilder, TbClustering, GaudiSequencer/Tracking, TbTriggerAssociator, TbClusterAssociator, TbAlignment
RootHistSvc          INFO Writing ROOT histograms to: Kepler-histos.root
HistogramPersis...   INFO Added successfully Conversion service:RootHistSvc
TbPixelSvc           INFO Hash for device 1: 1582341573
TbEventBuilder       INFO W0002_B05 (device 1) is mapped to plane 1
TbPixelSvc           INFO Hash for device 2: 67140667
TbEventBuilder       INFO W0002_C05 (device 2) is mapped to plane 2
TbPixelSvc           INFO Hash for device 3: 1582341573
TbEventBuilder       INFO W0002_D05 (device 3) is mapped to plane 3
TbPixelSvc           INFO Hash for device 8: 1582341573
TbEventBuilder       INFO W0002_E05 (device 8) is mapped to plane 8
TbPixelSvc           INFO Hash for device 6: 1582341573
TbEventBuilder       INFO W0002_F05 (device 6) is mapped to plane 6
TbPixelSvc           INFO Hash for device 5: 4247229030
TbEventBuilder       INFO W0002_G05 (device 5) is mapped to plane 5
TbPixelSvc           INFO Hash for device 7: 1117630308
TbEventBuilder       INFO W0002_H07 (device 7) is mapped to plane 7
TbPixelSvc           INFO Hash for device 0: 2288402915
TbEventBuilder       INFO W0002_J06 (device 0) is mapped to plane 0
TbPixelSvc           INFO Hash for device 4: 567223384
TbEventBuilder       INFO W0009_G08 (device 4) is mapped to plane 4
TbEventBuilder       INFO Total data size: 73582112 packets
Tracking             INFO Member list: TbSimpleTracking
TbAlignment          INFO Adding tool TbMillepede
TbAlignment.s0       INFO Using the default degrees of freedom:
TbAlignment.s0       INFO   Translation X   ON
TbAlignment.s0       INFO   Translation Y   ON
TbAlignment.s0       INFO   Translation Z   OFF
TbAlignment.s0       INFO   Rotation X      ON
TbAlignment.s0       INFO   Rotation Y      ON
TbAlignment.s0       INFO   Rotation Z      ON
Monitoring           INFO Member list: TbHitMonitor, TbClusterPlots, TbTrackPlots, TbTriggerMonitor, TbDUTMonitor, TbTrackingEfficiency
Output               INFO Member list:
ApplicationMgr       INFO Application Manager Initialized successfully
ApplicationMgr       INFO Application Manager Started successfully
TbAlignment          INFO Collected 1000 alignment tracks
TbAlignment          INFO Collected 2000 alignment tracks
TbAlignment          INFO Collected 3000 alignment tracks
TbAlignment          INFO Collected 4000 alignment tracks
TbAlignment          INFO Collected 5000 alignment tracks
TbAlignment          INFO Collected 6000 alignment tracks
TbAlignment          INFO Collected 7000 alignment tracks
TbAlignment          INFO Collected 8000 alignment tracks
TbAlignment          INFO Collected 9000 alignment tracks
TbAlignment          INFO Collected 10000 alignment tracks
TbAlignment.s0       INFO Millepede alignment
TbAlignment.s0       INFO
TbAlignment.s0       INFO             * o o                   o
TbAlignment.s0       INFO               o o                   o
TbAlignment.s0       INFO    o ooooo  o o o  oo  ooo   oo   ooo  oo
TbAlignment.s0       INFO     o  o  o o o o o  o o  o o  o o  o o  o
TbAlignment.s0       INFO     o  o  o o o o oooo o  o oooo o  o oooo
TbAlignment.s0       INFO     o  o  o o o o o    ooo  o    o  o o
TbAlignment.s0       INFO     o  o  o o o o  oo  o     oo   ooo  oo  ++ starts
TbAlignment.s0       INFO
TbAlignment.s0       INFO Feeding Millepede with 10472 tracks...
TbAlignment.s0       INFO Determining global parameters...
TbAlignment.s0       INFO Iteration 1 (using 10472 tracks)
TbAlignment.s0       INFO Chi2 / DOF after re-fit: 1.04251
TbAlignment.s0       INFO Iteration 2 (using 8874 tracks)
TbAlignment.s0       INFO Chi2 / DOF after re-fit: 1.04131
TbAlignment.s0       INFO Iteration 3 (using 8869 tracks)
TbAlignment.s0       INFO Chi2 / DOF after re-fit: 1.04131
TbAlignment.s0       INFO Iteration 4 (using 8869 tracks)
TbAlignment.s0       INFO Chi2 / DOF after re-fit: 1.04131
TbAlignment.s0       INFO Iteration 5 (using 8869 tracks)
TbAlignment.s0       INFO Chi2 / DOF after re-fit: 1.04131
TbAlignment.s0       INFO Iteration 6 (using 8869 tracks)
TbAlignment.s0       INFO Chi2 / DOF after re-fit: 1.04131
TbAlignment.s0       INFO Iteration 7 (using 8869 tracks)
TbAlignment.s0       INFO Chi2 / DOF after re-fit: 1.04131
TbAlignment.s0       INFO Iteration 8 (using 8869 tracks)
TbAlignment.s0       INFO Chi2 / DOF after re-fit: 1.04131
TbAlignment.s0       INFO Iteration 9 (using 8869 tracks)
TbAlignment.s0       INFO -------------------------------------------------------------------------------------
TbAlignment.s0       INFO  Result of fit for global parameters
TbAlignment.s0       INFO -------------------------------------------------------------------------------------
TbAlignment.s0       INFO    I    Difference    Last step      Error        Pull     Global corr.
TbAlignment.s0       INFO -------------------------------------------------------------------------------------
TbAlignment.s0       INFO    0     0.000930     0.000000      0.00023      0.01861      0.97177
TbAlignment.s0       INFO    1    -0.000149     0.000000      0.00012     -0.00297      0.91616
TbAlignment.s0       INFO    2     0.000072    -0.000000      0.00017      0.00144      0.95918
TbAlignment.s0       INFO    3    -0.000758    -0.000000      0.00024     -0.01517      0.98046
TbAlignment.s0       INFO    4    -0.001014     0.000000      0.00044     -0.02029      0.99267
TbAlignment.s0       INFO    5    -0.000483     0.000000      0.00030     -0.00966      0.98314
TbAlignment.s0       INFO    6     0.000656    -0.000000      0.00022      0.01312      0.96711
TbAlignment.s0       INFO    7     0.000746    -0.000000      0.00038      0.01492      0.98792
TbAlignment.s0       INFO -------------------------------------------------------------------------------------
TbAlignment.s0       INFO    8     0.008402    -0.000000      0.00118      0.16810      0.99918
TbAlignment.s0       INFO    9     0.002866    -0.000000      0.00045      0.05733      0.99545
TbAlignment.s0       INFO   10    -0.003699     0.000000      0.00049     -0.07398      0.99631
TbAlignment.s0       INFO   11    -0.008665     0.000000      0.00125     -0.17335      0.99946
TbAlignment.s0       INFO   12    -0.004747     0.000000      0.00082     -0.09496      0.99822
TbAlignment.s0       INFO   13    -0.001395     0.000000      0.00035     -0.02790      0.98978
TbAlignment.s0       INFO   14     0.001089    -0.000000      0.00025      0.02177      0.97853
TbAlignment.s0       INFO   15     0.006149    -0.000000      0.00099      0.12301      0.99849
TbAlignment.s0       INFO -------------------------------------------------------------------------------------
TbAlignment.s0       INFO   16          OFF          OFF          OFF          OFF          OFF
TbAlignment.s0       INFO   17          OFF          OFF          OFF          OFF          OFF
TbAlignment.s0       INFO   18          OFF          OFF          OFF          OFF          OFF
TbAlignment.s0       INFO   19          OFF          OFF          OFF          OFF          OFF
TbAlignment.s0       INFO   20          OFF          OFF          OFF          OFF          OFF
TbAlignment.s0       INFO   21          OFF          OFF          OFF          OFF          OFF
TbAlignment.s0       INFO   22          OFF          OFF          OFF          OFF          OFF
TbAlignment.s0       INFO   23          OFF          OFF          OFF          OFF          OFF
TbAlignment.s0       INFO -------------------------------------------------------------------------------------
TbAlignment.s0       INFO   24    -0.002981    -0.000000      0.00057     -0.60007      0.97575
TbAlignment.s0       INFO   25    -0.002730    -0.000000      0.00051     -0.54888      0.97377
TbAlignment.s0       INFO   26    -0.002245    -0.000000      0.00044     -0.45067      0.97560
TbAlignment.s0       INFO   27    -0.001895    -0.000000      0.00040     -0.38021      0.97245
TbAlignment.s0       INFO   28    -0.002035    -0.000000      0.00032     -0.40775      0.98755
TbAlignment.s0       INFO   29    -0.002336    -0.000000      0.00042     -0.46884      0.99366
TbAlignment.s0       INFO   30    -0.002459    -0.000000      0.00054     -0.49480      0.99345
TbAlignment.s0       INFO   31    -0.003021    -0.000000      0.00069     -0.60997      0.99635
TbAlignment.s0       INFO -------------------------------------------------------------------------------------
TbAlignment.s0       INFO   32    -0.001141    -0.000000      0.00078     -0.23091      0.98301
TbAlignment.s0       INFO   33    -0.000697    -0.000000      0.00072     -0.14088      0.98309
TbAlignment.s0       INFO   34    -0.000091    -0.000000      0.00063     -0.01827      0.98431
TbAlignment.s0       INFO   35    -0.000337    -0.000000      0.00058     -0.06786      0.98296
TbAlignment.s0       INFO   36    -0.000484    -0.000000      0.00067     -0.09769      0.99678
TbAlignment.s0       INFO   37    -0.000438    -0.000000      0.00065     -0.08830      0.99680
TbAlignment.s0       INFO   38    -0.000942    -0.000000      0.00069     -0.19014      0.99531
TbAlignment.s0       INFO   39    -0.000402    -0.000000      0.00069     -0.08118      0.99567
TbAlignment.s0       INFO -------------------------------------------------------------------------------------
TbAlignment.s0       INFO   40     0.004972    -0.000000      0.00075      1.00592      0.99997
TbAlignment.s0       INFO   41     0.003961    -0.000000      0.00061      0.79822      0.99996
TbAlignment.s0       INFO   42     0.003157    -0.000000      0.00049      0.63444      0.99994
TbAlignment.s0       INFO   43     0.002525    -0.000000      0.00039      0.50652      0.99991
TbAlignment.s0       INFO   44    -0.002594     0.000000      0.00039     -0.52042      0.99992
TbAlignment.s0       INFO   45    -0.003185     0.000000      0.00048     -0.64004      0.99994
TbAlignment.s0       INFO   46    -0.004073     0.000000      0.00062     -0.82101      0.99996
TbAlignment.s0       INFO   47    -0.004763     0.000000      0.00074     -0.96330      0.99997
TbAlignment.s0       INFO -------------------------------------------------------------------------------------
TbAlignment.s0       INFO
TbAlignment.s0       INFO             * o o                   o
TbAlignment.s0       INFO               o o                   o
TbAlignment.s0       INFO    o ooooo  o o o  oo  ooo   oo   ooo  oo
TbAlignment.s0       INFO     o  o  o o o o o  o o  o o  o o  o o  o
TbAlignment.s0       INFO     o  o  o o o o oooo o  o oooo o  o oooo
TbAlignment.s0       INFO     o  o  o o o o o    ooo  o    o  o o
TbAlignment.s0       INFO     o  o  o o o o  oo  o     oo   ooo  oo ++ ends.
TbAlignment.s0       INFO                        o
TbAlignment.s0       INFO
TbAlignment.s0       INFO Convergence: 0.00199
TbAlignment.s0       INFO Updating geometry...
TbAlignment.s0       INFO
TbAlignment.s0       INFO             * o o                   o
TbAlignment.s0       INFO               o o                   o
TbAlignment.s0       INFO    o ooooo  o o o  oo  ooo   oo   ooo  oo
TbAlignment.s0       INFO     o  o  o o o o o  o o  o o  o o  o o  o
TbAlignment.s0       INFO     o  o  o o o o oooo o  o oooo o  o oooo
TbAlignment.s0       INFO     o  o  o o o o o    ooo  o    o  o o
TbAlignment.s0       INFO     o  o  o o o o  oo  o     oo   ooo  oo  ++ starts
TbAlignment.s0       INFO
TbAlignment.s0       INFO Feeding Millepede with 10472 tracks...
TbAlignment.s0       INFO Determining global parameters...
TbAlignment.s0       INFO Iteration 1 (using 10472 tracks)
TbAlignment.s0       INFO Chi2 / DOF after re-fit: 1.04353
TbAlignment.s0       INFO Iteration 2 (using 8876 tracks)
TbAlignment.s0       INFO Chi2 / DOF after re-fit: 1.04240
TbAlignment.s0       INFO Iteration 3 (using 8871 tracks)
TbAlignment.s0       INFO Chi2 / DOF after re-fit: 1.04240
TbAlignment.s0       INFO Iteration 4 (using 8871 tracks)
TbAlignment.s0       INFO Chi2 / DOF after re-fit: 1.04240
TbAlignment.s0       INFO Iteration 5 (using 8871 tracks)
TbAlignment.s0       INFO Chi2 / DOF after re-fit: 1.04240
TbAlignment.s0       INFO Iteration 6 (using 8871 tracks)
TbAlignment.s0       INFO Chi2 / DOF after re-fit: 1.04240
TbAlignment.s0       INFO Iteration 7 (using 8871 tracks)
TbAlignment.s0       INFO Chi2 / DOF after re-fit: 1.04240
TbAlignment.s0       INFO Iteration 8 (using 8871 tracks)
TbAlignment.s0       INFO Chi2 / DOF after re-fit: 1.04240
TbAlignment.s0       INFO Iteration 9 (using 8871 tracks)
TbAlignment.s0       INFO -------------------------------------------------------------------------------------
TbAlignment.s0       INFO  Result of fit for global parameters
TbAlignment.s0       INFO -------------------------------------------------------------------------------------
TbAlignment.s0       INFO    I    Difference    Last step      Error        Pull     Global corr.
TbAlignment.s0       INFO -------------------------------------------------------------------------------------
TbAlignment.s0       INFO    0    -0.000291     0.000000      0.00022     -0.00582      0.96798
TbAlignment.s0       INFO    1     0.000007     0.000000      0.00012      0.00014      0.91869
TbAlignment.s0       INFO    2     0.000087    -0.000000      0.00017      0.00175      0.95806
TbAlignment.s0       INFO    3     0.000229    -0.000000      0.00023      0.00458      0.97854
TbAlignment.s0       INFO    4     0.000106     0.000000      0.00043      0.00212      0.99263
TbAlignment.s0       INFO    5     0.000090     0.000000      0.00030      0.00181      0.98309
TbAlignment.s0       INFO    6    -0.000055    -0.000000      0.00022     -0.00109      0.96696
TbAlignment.s0       INFO    7    -0.000174    -0.000000      0.00038     -0.00348      0.98784
TbAlignment.s0       INFO -------------------------------------------------------------------------------------
TbAlignment.s0       INFO    8    -0.001756    -0.000000      0.00112     -0.03514      0.99910
TbAlignment.s0       INFO    9    -0.000633    -0.000000      0.00043     -0.01266      0.99500
TbAlignment.s0       INFO   10     0.000716     0.000000      0.00046      0.01432      0.99592
TbAlignment.s0       INFO   11     0.001876     0.000000      0.00119      0.03754      0.99941
TbAlignment.s0       INFO   12     0.001034     0.000000      0.00079      0.02068      0.99808
TbAlignment.s0       INFO   13     0.000415     0.000000      0.00033      0.00830      0.98901
TbAlignment.s0       INFO   14    -0.000263    -0.000000      0.00025     -0.00525      0.97729
TbAlignment.s0       INFO   15    -0.001389    -0.000000      0.00095     -0.02778      0.99835
TbAlignment.s0       INFO -------------------------------------------------------------------------------------
TbAlignment.s0       INFO   16          OFF          OFF          OFF          OFF          OFF
TbAlignment.s0       INFO   17          OFF          OFF          OFF          OFF          OFF
TbAlignment.s0       INFO   18          OFF          OFF          OFF          OFF          OFF
TbAlignment.s0       INFO   19          OFF          OFF          OFF          OFF          OFF
TbAlignment.s0       INFO   20          OFF          OFF          OFF          OFF          OFF
TbAlignment.s0       INFO   21          OFF          OFF          OFF          OFF          OFF
TbAlignment.s0       INFO   22          OFF          OFF          OFF          OFF          OFF
TbAlignment.s0       INFO   23          OFF          OFF          OFF          OFF          OFF
TbAlignment.s0       INFO -------------------------------------------------------------------------------------
TbAlignment.s0       INFO   24    -0.000087    -0.000000      0.00056     -0.01745      0.97556
TbAlignment.s0       INFO   25    -0.000030    -0.000000      0.00050     -0.00605      0.97338
TbAlignment.s0       INFO   26     0.000033    -0.000000      0.00044      0.00669      0.97539
TbAlignment.s0       INFO   27     0.000002    -0.000000      0.00039      0.00039      0.97226
TbAlignment.s0       INFO   28    -0.000054    -0.000000      0.00032     -0.01073      0.98746
TbAlignment.s0       INFO   29    -0.000006    -0.000000      0.00042     -0.00121      0.99347
TbAlignment.s0       INFO   30    -0.000083    -0.000000      0.00053     -0.01675      0.99323
TbAlignment.s0       INFO   31     0.000061    -0.000000      0.00068      0.01237      0.99612
TbAlignment.s0       INFO -------------------------------------------------------------------------------------
TbAlignment.s0       INFO   32     0.000383    -0.000000      0.00076      0.07745      0.98240
TbAlignment.s0       INFO   33     0.000315    -0.000000      0.00070      0.06357      0.98252
TbAlignment.s0       INFO   34     0.000265    -0.000000      0.00062      0.05337      0.98394
TbAlignment.s0       INFO   35     0.000213    -0.000000      0.00057      0.04289      0.98261
TbAlignment.s0       INFO   36     0.000307    -0.000000      0.00066      0.06187      0.99659
TbAlignment.s0       INFO   37     0.000252    -0.000000      0.00064      0.05080      0.99662
TbAlignment.s0       INFO   38     0.000315    -0.000000      0.00068      0.06367      0.99505
TbAlignment.s0       INFO   39     0.000301    -0.000000      0.00068      0.06081      0.99542
TbAlignment.s0       INFO -------------------------------------------------------------------------------------
TbAlignment.s0       INFO   40    -0.001102    -0.000000      0.00072     -0.22273      0.99996
TbAlignment.s0       INFO   41    -0.000891    -0.000000      0.00058     -0.17947      0.99996
TbAlignment.s0       INFO   42    -0.000717    -0.000000      0.00047     -0.14406      0.99994
TbAlignment.s0       INFO   43    -0.000568    -0.000000      0.00037     -0.11388      0.99991
TbAlignment.s0       INFO   44     0.000595     0.000000      0.00037      0.11937      0.99991
TbAlignment.s0       INFO   45     0.000712     0.000000      0.00046      0.14295      0.99994
TbAlignment.s0       INFO   46     0.000907     0.000000      0.00059      0.18259      0.99995
TbAlignment.s0       INFO   47     0.001065     0.000000      0.00071      0.21518      0.99996
TbAlignment.s0       INFO -------------------------------------------------------------------------------------
TbAlignment.s0       INFO
TbAlignment.s0       INFO             * o o                   o
TbAlignment.s0       INFO               o o                   o
TbAlignment.s0       INFO    o ooooo  o o o  oo  ooo   oo   ooo  oo
TbAlignment.s0       INFO     o  o  o o o o o  o o  o o  o o  o o  o
TbAlignment.s0       INFO     o  o  o o o o oooo o  o oooo o  o oooo
TbAlignment.s0       INFO     o  o  o o o o o    ooo  o    o  o o
TbAlignment.s0       INFO     o  o  o o o o  oo  o     oo   ooo  oo ++ ends.
TbAlignment.s0       INFO                        o
TbAlignment.s0       INFO
TbAlignment.s0       INFO Convergence: 0.00038
TbAlignment.s0       INFO Updating geometry...
TbAlignment.s0       INFO
TbAlignment.s0       INFO             * o o                   o
TbAlignment.s0       INFO               o o                   o
TbAlignment.s0       INFO    o ooooo  o o o  oo  ooo   oo   ooo  oo
TbAlignment.s0       INFO     o  o  o o o o o  o o  o o  o o  o o  o
TbAlignment.s0       INFO     o  o  o o o o oooo o  o oooo o  o oooo
TbAlignment.s0       INFO     o  o  o o o o o    ooo  o    o  o o
TbAlignment.s0       INFO     o  o  o o o o  oo  o     oo   ooo  oo  ++ starts
TbAlignment.s0       INFO
TbAlignment.s0       INFO Feeding Millepede with 10472 tracks...
TbAlignment.s0       INFO Determining global parameters...
TbAlignment.s0       INFO Iteration 1 (using 10472 tracks)
TbAlignment.s0       INFO Chi2 / DOF after re-fit: 1.04353
TbAlignment.s0       INFO Iteration 2 (using 8876 tracks)
TbAlignment.s0       INFO Chi2 / DOF after re-fit: 1.04240
TbAlignment.s0       INFO Iteration 3 (using 8871 tracks)
TbAlignment.s0       INFO Chi2 / DOF after re-fit: 1.04240
TbAlignment.s0       INFO Iteration 4 (using 8871 tracks)
TbAlignment.s0       INFO Chi2 / DOF after re-fit: 1.04240
TbAlignment.s0       INFO Iteration 5 (using 8871 tracks)
TbAlignment.s0       INFO Chi2 / DOF after re-fit: 1.04240
TbAlignment.s0       INFO Iteration 6 (using 8871 tracks)
TbAlignment.s0       INFO Chi2 / DOF after re-fit: 1.04240
TbAlignment.s0       INFO Iteration 7 (using 8871 tracks)
TbAlignment.s0       INFO Chi2 / DOF after re-fit: 1.04240
TbAlignment.s0       INFO Iteration 8 (using 8871 tracks)
TbAlignment.s0       INFO Chi2 / DOF after re-fit: 1.04240
TbAlignment.s0       INFO Iteration 9 (using 8871 tracks)
TbAlignment.s0       INFO -------------------------------------------------------------------------------------
TbAlignment.s0       INFO  Result of fit for global parameters
TbAlignment.s0       INFO -------------------------------------------------------------------------------------
TbAlignment.s0       INFO    I    Difference    Last step      Error        Pull     Global corr.
TbAlignment.s0       INFO -------------------------------------------------------------------------------------
TbAlignment.s0       INFO    0    -0.000000     0.000000      0.00022     -0.00000      0.96856
TbAlignment.s0       INFO    1    -0.000004     0.000000      0.00012     -0.00007      0.91826
TbAlignment.s0       INFO    2     0.000008    -0.000000      0.00017      0.00016      0.95787
TbAlignment.s0       INFO    3     0.000009    -0.000000      0.00023      0.00018      0.97872
TbAlignment.s0       INFO    4    -0.000034     0.000000      0.00043     -0.00068      0.99253
TbAlignment.s0       INFO    5    -0.000016     0.000000      0.00030     -0.00032      0.98292
TbAlignment.s0       INFO    6     0.000007    -0.000000      0.00022      0.00015      0.96677
TbAlignment.s0       INFO    7     0.000029    -0.000000      0.00038      0.00058      0.98770
TbAlignment.s0       INFO -------------------------------------------------------------------------------------
TbAlignment.s0       INFO    8     0.000078    -0.000000      0.00112      0.00157      0.99910
TbAlignment.s0       INFO    9     0.000027    -0.000000      0.00043      0.00054      0.99503
TbAlignment.s0       INFO   10    -0.000029     0.000000      0.00047     -0.00059      0.99594
TbAlignment.s0       INFO   11    -0.000081     0.000000      0.00119     -0.00162      0.99941
TbAlignment.s0       INFO   12    -0.000059     0.000000      0.00079     -0.00118      0.99808
TbAlignment.s0       INFO   13    -0.000020     0.000000      0.00034     -0.00040      0.98907
TbAlignment.s0       INFO   14     0.000014    -0.000000      0.00025      0.00029      0.97735
TbAlignment.s0       INFO   15     0.000069    -0.000000      0.00095      0.00139      0.99835
TbAlignment.s0       INFO -------------------------------------------------------------------------------------
TbAlignment.s0       INFO   16          OFF          OFF          OFF          OFF          OFF
TbAlignment.s0       INFO   17          OFF          OFF          OFF          OFF          OFF
TbAlignment.s0       INFO   18          OFF          OFF          OFF          OFF          OFF
TbAlignment.s0       INFO   19          OFF          OFF          OFF          OFF          OFF
TbAlignment.s0       INFO   20          OFF          OFF          OFF          OFF          OFF
TbAlignment.s0       INFO   21          OFF          OFF          OFF          OFF          OFF
TbAlignment.s0       INFO   22          OFF          OFF          OFF          OFF          OFF
TbAlignment.s0       INFO   23          OFF          OFF          OFF          OFF          OFF
TbAlignment.s0       INFO -------------------------------------------------------------------------------------
TbAlignment.s0       INFO   24     0.000069    -0.000000      0.00057      0.01399      0.97560
TbAlignment.s0       INFO   25     0.000061    -0.000000      0.00050      0.01233      0.97338
TbAlignment.s0       INFO   26     0.000059    -0.000000      0.00044      0.01184      0.97534
TbAlignment.s0       INFO   27     0.000053    -0.000000      0.00039      0.01072      0.97219
TbAlignment.s0       INFO   28     0.000049    -0.000000      0.00032      0.00984      0.98743
TbAlignment.s0       INFO   29     0.000051    -0.000000      0.00042      0.01031      0.99347
TbAlignment.s0       INFO   30     0.000067    -0.000000      0.00053      0.01343      0.99320
TbAlignment.s0       INFO   31     0.000076    -0.000000      0.00068      0.01535      0.99611
TbAlignment.s0       INFO -------------------------------------------------------------------------------------
TbAlignment.s0       INFO   32     0.000048    -0.000000      0.00076      0.00971      0.98225
TbAlignment.s0       INFO   33     0.000047    -0.000000      0.00070      0.00953      0.98235
TbAlignment.s0       INFO   34     0.000043    -0.000000      0.00061      0.00869      0.98375
TbAlignment.s0       INFO   35     0.000041    -0.000000      0.00057      0.00823      0.98243
TbAlignment.s0       INFO   36     0.000045    -0.000000      0.00066      0.00902      0.99656
TbAlignment.s0       INFO   37     0.000041    -0.000000      0.00064      0.00835      0.99659
TbAlignment.s0       INFO   38     0.000047    -0.000000      0.00067      0.00944      0.99499
TbAlignment.s0       INFO   39     0.000046    -0.000000      0.00068      0.00934      0.99537
TbAlignment.s0       INFO -------------------------------------------------------------------------------------
TbAlignment.s0       INFO   40     0.000049    -0.000000      0.00072      0.00986      0.99996
TbAlignment.s0       INFO   41     0.000039    -0.000000      0.00058      0.00780      0.99996
TbAlignment.s0       INFO   42     0.000031    -0.000000      0.00047      0.00614      0.99994
TbAlignment.s0       INFO   43     0.000024    -0.000000      0.00037      0.00474      0.99991
TbAlignment.s0       INFO   44    -0.000023     0.000000      0.00037     -0.00454      0.99992
TbAlignment.s0       INFO   45    -0.000030     0.000000      0.00046     -0.00607      0.99994
TbAlignment.s0       INFO   46    -0.000040     0.000000      0.00059     -0.00800      0.99995
TbAlignment.s0       INFO   47    -0.000049     0.000000      0.00071     -0.00993      0.99996
TbAlignment.s0       INFO -------------------------------------------------------------------------------------
TbAlignment.s0       INFO
TbAlignment.s0       INFO             * o o                   o
TbAlignment.s0       INFO               o o                   o
TbAlignment.s0       INFO    o ooooo  o o o  oo  ooo   oo   ooo  oo
TbAlignment.s0       INFO     o  o  o o o o o  o o  o o  o o  o o  o
TbAlignment.s0       INFO     o  o  o o o o oooo o  o oooo o  o oooo
TbAlignment.s0       INFO     o  o  o o o o o    ooo  o    o  o o
TbAlignment.s0       INFO     o  o  o o o o  oo  o     oo   ooo  oo ++ ends.
TbAlignment.s0       INFO                        o
TbAlignment.s0       INFO
TbAlignment.s0       INFO Convergence: 0.00003
TbAlignment.s0       INFO Updating geometry...
TbAlignment.s0       INFO
TbAlignment.s0       INFO             * o o                   o
TbAlignment.s0       INFO               o o                   o
TbAlignment.s0       INFO    o ooooo  o o o  oo  ooo   oo   ooo  oo
TbAlignment.s0       INFO     o  o  o o o o o  o o  o o  o o  o o  o
TbAlignment.s0       INFO     o  o  o o o o oooo o  o oooo o  o oooo
TbAlignment.s0       INFO     o  o  o o o o o    ooo  o    o  o o
TbAlignment.s0       INFO     o  o  o o o o  oo  o     oo   ooo  oo  ++ starts
TbAlignment.s0       INFO
TbAlignment.s0       INFO Feeding Millepede with 10472 tracks...
TbAlignment.s0       INFO Determining global parameters...
TbAlignment.s0       INFO Iteration 1 (using 10472 tracks)
TbAlignment.s0       INFO Chi2 / DOF after re-fit: 1.04353
TbAlignment.s0       INFO Iteration 2 (using 8876 tracks)
TbAlignment.s0       INFO Chi2 / DOF after re-fit: 1.04240
TbAlignment.s0       INFO Iteration 3 (using 8871 tracks)
TbAlignment.s0       INFO Chi2 / DOF after re-fit: 1.04240
TbAlignment.s0       INFO Iteration 4 (using 8871 tracks)
TbAlignment.s0       INFO Chi2 / DOF after re-fit: 1.04240
TbAlignment.s0       INFO Iteration 5 (using 8871 tracks)
TbAlignment.s0       INFO Chi2 / DOF after re-fit: 1.04240
TbAlignment.s0       INFO Iteration 6 (using 8871 tracks)
TbAlignment.s0       INFO Chi2 / DOF after re-fit: 1.04240
TbAlignment.s0       INFO Iteration 7 (using 8871 tracks)
TbAlignment.s0       INFO Chi2 / DOF after re-fit: 1.04240
TbAlignment.s0       INFO Iteration 8 (using 8871 tracks)
TbAlignment.s0       INFO Chi2 / DOF after re-fit: 1.04240
TbAlignment.s0       INFO Iteration 9 (using 8871 tracks)
TbAlignment.s0       INFO -------------------------------------------------------------------------------------
TbAlignment.s0       INFO  Result of fit for global parameters
TbAlignment.s0       INFO -------------------------------------------------------------------------------------
TbAlignment.s0       INFO    I    Difference    Last step      Error        Pull     Global corr.
TbAlignment.s0       INFO -------------------------------------------------------------------------------------
TbAlignment.s0       INFO    0    -0.000001     0.000000      0.00022     -0.00003      0.96851
TbAlignment.s0       INFO    1    -0.000000     0.000000      0.00012     -0.00000      0.91821
TbAlignment.s0       INFO    2     0.000000    -0.000000      0.00017      0.00001      0.95786
TbAlignment.s0       INFO    3     0.000001    -0.000000      0.00023      0.00002      0.97871
TbAlignment.s0       INFO    4     0.000001     0.000000      0.00043      0.00001      0.99254
TbAlignment.s0       INFO    5    -0.000000     0.000000      0.00030     -0.00000      0.98294
TbAlignment.s0       INFO    6     0.000000    -0.000000      0.00022      0.00000      0.96678
TbAlignment.s0       INFO    7    -0.000001    -0.000000      0.00038     -0.00001      0.98771
TbAlignment.s0       INFO -------------------------------------------------------------------------------------
TbAlignment.s0       INFO    8    -0.000003    -0.000000      0.00112     -0.00007      0.99910
TbAlignment.s0       INFO    9    -0.000001    -0.000000      0.00043     -0.00003      0.99503
TbAlignment.s0       INFO   10     0.000001     0.000000      0.00047      0.00003      0.99594
TbAlignment.s0       INFO   11     0.000004     0.000000      0.00119      0.00007      0.99941
TbAlignment.s0       INFO   12     0.000003     0.000000      0.00079      0.00006      0.99808
TbAlignment.s0       INFO   13     0.000001     0.000000      0.00033      0.00002      0.98906
TbAlignment.s0       INFO   14    -0.000001    -0.000000      0.00025     -0.00002      0.97735
TbAlignment.s0       INFO   15    -0.000003    -0.000000      0.00095     -0.00007      0.99835
TbAlignment.s0       INFO -------------------------------------------------------------------------------------
TbAlignment.s0       INFO   16          OFF          OFF          OFF          OFF          OFF
TbAlignment.s0       INFO   17          OFF          OFF          OFF          OFF          OFF
TbAlignment.s0       INFO   18          OFF          OFF          OFF          OFF          OFF
TbAlignment.s0       INFO   19          OFF          OFF          OFF          OFF          OFF
TbAlignment.s0       INFO   20          OFF          OFF          OFF          OFF          OFF
TbAlignment.s0       INFO   21          OFF          OFF          OFF          OFF          OFF
TbAlignment.s0       INFO   22          OFF          OFF          OFF          OFF          OFF
TbAlignment.s0       INFO   23          OFF          OFF          OFF          OFF          OFF
TbAlignment.s0       INFO -------------------------------------------------------------------------------------
TbAlignment.s0       INFO   24     0.000006    -0.000000      0.00057      0.00124      0.97559
TbAlignment.s0       INFO   25     0.000006    -0.000000      0.00050      0.00122      0.97338
TbAlignment.s0       INFO   26     0.000006    -0.000000      0.00044      0.00129      0.97532
TbAlignment.s0       INFO   27     0.000006    -0.000000      0.00039      0.00130      0.97218
TbAlignment.s0       INFO   28     0.000006    -0.000000      0.00032      0.00128      0.98742
TbAlignment.s0       INFO   29     0.000006    -0.000000      0.00042      0.00120      0.99347
TbAlignment.s0       INFO   30     0.000007    -0.000000      0.00053      0.00134      0.99320
TbAlignment.s0       INFO   31     0.000006    -0.000000      0.00068      0.00123      0.99612
TbAlignment.s0       INFO -------------------------------------------------------------------------------------
TbAlignment.s0       INFO   32     0.000000    -0.000000      0.00076      0.00004      0.98227
TbAlignment.s0       INFO   33     0.000001    -0.000000      0.00070      0.00012      0.98236
TbAlignment.s0       INFO   34     0.000001    -0.000000      0.00061      0.00017      0.98376
TbAlignment.s0       INFO   35     0.000001    -0.000000      0.00057      0.00020      0.98243
TbAlignment.s0       INFO   36     0.000001    -0.000000      0.00066      0.00011      0.99656
TbAlignment.s0       INFO   37     0.000001    -0.000000      0.00064      0.00015      0.99659
TbAlignment.s0       INFO   38     0.000001    -0.000000      0.00067      0.00011      0.99500
TbAlignment.s0       INFO   39     0.000001    -0.000000      0.00068      0.00015      0.99538
TbAlignment.s0       INFO -------------------------------------------------------------------------------------
TbAlignment.s0       INFO   40    -0.000003    -0.000000      0.00072     -0.00054      0.99996
TbAlignment.s0       INFO   41    -0.000002    -0.000000      0.00058     -0.00045      0.99996
TbAlignment.s0       INFO   42    -0.000002    -0.000000      0.00047     -0.00037      0.99994
TbAlignment.s0       INFO   43    -0.000002    -0.000000      0.00037     -0.00031      0.99991
TbAlignment.s0       INFO   44     0.000001     0.000000      0.00037      0.00029      0.99992
TbAlignment.s0       INFO   45     0.000002     0.000000      0.00046      0.00037      0.99994
TbAlignment.s0       INFO   46     0.000002     0.000000      0.00059      0.00046      0.99995
TbAlignment.s0       INFO   47     0.000003     0.000000      0.00071      0.00055      0.99996
TbAlignment.s0       INFO -------------------------------------------------------------------------------------
TbAlignment.s0       INFO
TbAlignment.s0       INFO             * o o                   o
TbAlignment.s0       INFO               o o                   o
TbAlignment.s0       INFO    o ooooo  o o o  oo  ooo   oo   ooo  oo
TbAlignment.s0       INFO     o  o  o o o o o  o o  o o  o o  o o  o
TbAlignment.s0       INFO     o  o  o o o o oooo o  o oooo o  o oooo
TbAlignment.s0       INFO     o  o  o o o o o    ooo  o    o  o o
TbAlignment.s0       INFO     o  o  o o o o  oo  o     oo   ooo  oo ++ ends.
TbAlignment.s0       INFO                        o
TbAlignment.s0       INFO
TbAlignment.s0       INFO Convergence: 0.00000
TbAlignment.s0       INFO Updating geometry...
EventLoopMgr      SUCCESS Terminating event processing loop due to scheduled stop
ApplicationMgr       INFO Application Manager Stopped successfully
TbEventBuilder       INFO Plane  0:      7103600 packets in file,         4950 hits in cache
TbEventBuilder       INFO Plane  1:      6064648 packets in file,         4380 hits in cache
TbEventBuilder       INFO Plane  2:      6492004 packets in file,         4467 hits in cache
TbEventBuilder       INFO Plane  3:      6557011 packets in file,         4633 hits in cache
TbEventBuilder       INFO Plane  4:     22003178 packets in file,        15031 hits in cache
TbEventBuilder       INFO Plane  5:      6616512 packets in file,         4434 hits in cache
TbEventBuilder       INFO Plane  6:      6256693 packets in file,         4328 hits in cache
TbEventBuilder       INFO Plane  7:      6298052 packets in file,         4154 hits in cache
TbEventBuilder       INFO Plane  8:      6190414 packets in file,         4244 hits in cache
TbEventBuilder       INFO Fraction of data read: 0.00814392
TbEventBuilder       INFO Number of packets lost: 0
TbEventBuilder       INFO Unknown packets: 373
TbEventBuilder       INFO Skipped 1961 noise events.
TbClustering      SUCCESS Number of counters : 9
 |    Counter                                      |     #     |    sum     | mean/eff^* | rms/err^*  |     min     |     max     |
 | "NumberOfClusters0"                             |        34 |      12887 |     379.03 |     250.03 |      1.0000 |      779.00 |
 | "NumberOfClusters1"                             |        34 |      12917 |     379.91 |     253.50 |      1.0000 |      795.00 |
 | "NumberOfClusters2"                             |        34 |      13087 |     384.91 |     256.36 |      1.0000 |      802.00 |
 | "NumberOfClusters3"                             |        34 |      13215 |     388.68 |     260.53 |      1.0000 |      811.00 |
 | "NumberOfClusters4"                             |        34 |       3981 |     117.09 |     77.225 |      0.0000 |      265.00 |
 | "NumberOfClusters5"                             |        34 |      14715 |     432.79 |     288.85 |      1.0000 |      903.00 |
 | "NumberOfClusters6"                             |        34 |      14168 |     416.71 |     277.60 |      1.0000 |      862.00 |
 | "NumberOfClusters7"                             |        34 |      13942 |     410.06 |     272.47 |      1.0000 |      843.00 |
 | "NumberOfClusters8"                             |        34 |      13794 |     405.71 |     271.00 |      1.0000 |      844.00 |
TbSimpleTracking  SUCCESS Number of counters : 5
 |    Counter                                      |     #     |    sum     | mean/eff^* | rms/err^*  |     min     |     max     |
 | "Number of tracks"                              |        34 |      10500 |     308.82 |     205.70 |      1.0000 |      648.00 |
 | "Number of tracks removed by occupancy cut"     |        34 |          0 |     0.0000 |     0.0000 |      0.0000 |      0.0000 |
 | "nClusters"                                     |    108725 |     108725 |     1.0000 |     0.0000 |      1.0000 |      1.0000 |
 | "nClusters associated"                          |     83800 |      83800 |     1.0000 |     0.0000 |      1.0000 |      1.0000 |
 | "nClusters selected for tracking"               |    106990 |     106990 |     1.0000 |     0.0000 |      1.0000 |      1.0000 |
TbAlignment          INFO Writing alignment output file to Alignment_out.dat
TbHitMonitor      SUCCESS Booked 72 Histogram(s) : 1D=45 2D=9 1DProf=18
TbClusterPlots    SUCCESS Booked 308 Histogram(s) : 1D=243 2D=65
TbClusterPlots    SUCCESS Number of counters : 18
 |    Counter                                      |     #     |    sum     | mean/eff^* | rms/err^*  |     min     |     max     |
 |*"effFractionAssociated0"                        |     12887 |      10475 |(  81.2835 +- 0.343588 )%|   -------   |   -------   |
 |*"effFractionAssociated1"                        |     12917 |      10475 |(  81.0947 +- 0.344514 )%|   -------   |   -------   |
 |*"effFractionAssociated2"                        |     13087 |      10475 |(  80.0413 +- 0.349384 )%|   -------   |   -------   |
 |*"effFractionAssociated3"                        |     13215 |      10475 |(  79.2660 +- 0.352656 )%|   -------   |   -------   |
 |*"effFractionAssociated4"                        |      3981 |          0 |(  0.00000 +- 0.0251193)%|   -------   |   -------   |
 |*"effFractionAssociated5"                        |     14715 |      10475 |(  71.1859 +- 0.373353 )%|   -------   |   -------   |
 |*"effFractionAssociated6"                        |     14168 |      10475 |(  73.9342 +- 0.368811 )%|   -------   |   -------   |
 |*"effFractionAssociated7"                        |     13942 |      10475 |(  75.1327 +- 0.366072 )%|   -------   |   -------   |
 |*"effFractionAssociated8"                        |     13794 |      10475 |(  75.9388 +- 0.363953 )%|   -------   |   -------   |
 |*"effFractionAssociatedAbove50TOT0"              |     12687 |      10454 |(  82.3993 +- 0.338102 )%|   -------   |   -------   |
 |*"effFractionAssociatedAbove50TOT1"              |     12866 |      10470 |(  81.3773 +- 0.343203 )%|   -------   |   -------   |
 |*"effFractionAssociatedAbove50TOT2"              |     13024 |      10472 |(  80.4054 +- 0.347807 )%|   -------   |   -------   |
 |*"effFractionAssociatedAbove50TOT3"              |     13148 |      10471 |(  79.6395 +- 0.351179 )%|   -------   |   -------   |
 |*"effFractionAssociatedAbove50TOT4"              |      3703 |          0 |(  0.00000 +- 0.0270051)%|   -------   |   -------   |
 |*"effFractionAssociatedAbove50TOT5"              |     14599 |      10469 |(  71.7104 +- 0.372772 )%|   -------   |   -------   |
 |*"effFractionAssociatedAbove50TOT6"              |     14114 |      10472 |(  74.1958 +- 0.368307 )%|   -------   |   -------   |
 |*"effFractionAssociatedAbove50TOT7"              |     13888 |      10469 |(  75.3816 +- 0.365546 )%|   -------   |   -------   |
 |*"effFractionAssociatedAbove50TOT8"              |     13729 |      10470 |(  76.2619 +- 0.363126 )%|   -------   |   -------   |
TbTrackPlots      SUCCESS Booked 280 Histogram(s) : 1D=134 2D=137 1DProf=9
TbTriggerMonitor  SUCCESS Booked 19 Histogram(s) : 1D=19
TbTrackingEffic...SUCCESS Booked 20 Histogram(s) : 1D=20
ToolSvc              INFO Removing all tools created by ToolSvc
TimingAuditor.T...   INFO --------------------------------------------------------------------------------------------------
TimingAuditor.T...   INFO This machine has a speed about   2.82 times the speed of a 2.8 GHz Xeon.
TimingAuditor.T...   INFO Algorithm          (millisec) |    <user> |   <clock> |      min       max | entries | total (s) |
TimingAuditor.T...   INFO --------------------------------------------------------------------------------------------------
TimingAuditor.T...   INFO EVENT LOOP                    |   571.678 |   572.204 |    0.512   18197.3 |      34 |    19.455 |
TimingAuditor.T...   INFO  KeplerSequencer              |   571.678 |   572.166 |    0.494   18197.0 |      34 |    19.454 |
TimingAuditor.T...   INFO   Telescope                   |   549.711 |   549.901 |    0.154   18157.1 |      34 |    18.697 |
TimingAuditor.T...   INFO    TbEventBuilder             |     5.087 |     5.200 |    0.063      11.0 |      34 |     0.177 |
TimingAuditor.T...   INFO    TbClustering               |     4.882 |     4.736 |    0.040      22.6 |      34 |     0.161 |
TimingAuditor.T...   INFO    Tracking                   |     3.882 |     4.006 |    0.020       9.1 |      34 |     0.136 |
TimingAuditor.T...   INFO     TbSimpleTracking          |     3.882 |     4.002 |    0.019       9.1 |      34 |     0.136 |
TimingAuditor.T...   INFO    TbTriggerAssociator        |     0.088 |     0.029 |    0.007       0.1 |      34 |     0.001 |
TimingAuditor.T...   INFO    TbClusterAssociator        |     0.000 |     0.002 |    0.001       0.0 |      34 |     0.000 |
TimingAuditor.T...   INFO    TbAlignment                |   535.772 |   535.909 |    0.005   18134.1 |      34 |    18.221 |
TimingAuditor.T...   INFO   Monitoring                  |    21.967 |    22.257 |    0.211      43.8 |      34 |     0.757 |
TimingAuditor.T...   INFO    TbHitMonitor               |     3.823 |     4.064 |    0.041       8.1 |      34 |     0.138 |
TimingAuditor.T...   INFO    TbClusterPlots             |     6.793 |     6.728 |    0.063      13.2 |      34 |     0.229 |
TimingAuditor.T...   INFO    TbTrackPlots               |    11.057 |    11.207 |    0.078      22.5 |      34 |     0.381 |
TimingAuditor.T...   INFO    TbTriggerMonitor           |     0.000 |     0.028 |    0.010       0.1 |      34 |     0.001 |
TimingAuditor.T...   INFO    TbDUTMonitor               |     0.029 |     0.017 |    0.001       0.0 |      34 |     0.001 |
TimingAuditor.T...   INFO    TbTrackingEfficiency       |     0.265 |     0.190 |    0.009       0.4 |      34 |     0.006 |
TimingAuditor.T...   INFO   Output                      |     0.000 |     0.001 |    0.001       0.0 |      34 |     0.000 |
TimingAuditor.T...   INFO --------------------------------------------------------------------------------------------------
ApplicationMgr       INFO Application Manager Finalized successfully
ApplicationMgr       INFO Application Manager Terminated successfully with a user requested ScheduledStop
